  vbox      |    qemu
------------+--------------------
nat         |  -netdev user,...
hostonly    |  -netdev tap,...
            |  or
            |  -netdev socket,...
natservice  |
bridge      |  -netdev tap,...
            |  or
            |  -netdev bridge,...
