# robert@dakota.org
https://access.cdn.redhat.com/content/origin/files/sha256/a3/a387f3230acf87ee38707ee90d3c88f44d7bf579e6325492f562f0f1f9449e89/rhel-baseos-9.0-x86_64-dvd.iso?user=a13c5da10641e21618b411f3fbd0049a&_auth_=1656740987_a8690048676555473c1ed5739707fcab

https://access.cdn.redhat.com/content/origin/files/sha256/a3/a387f3230acf87ee38707ee90d3c88f44d7bf579e6325492f562f0f1f9449e89/rhel-baseos-9.0-x86_64-dvd.iso?user=a13c5da10641e21618b411f3fbd0049a&_auth_=1656741173_6fb8b06213df854709d3b2720ecec196


# visit
#   https://access.redhat.com/downloads/
#
# login to the your redhat account
#
# click "Red Hat Enterprise Linux"
#
# right-click (control-click on macos) on "Download Now"
# select "Copy Link Address" or its equivelant (varies by browers, etc)
# paste the link and put it to good use.

