<?xml version="1.0" encoding="UTF-8" standalone="no"?>
<!DOCTYPE svg PUBLIC "-//W3C//DTD SVG 1.1//EN"
 "http://www.w3.org/Graphics/SVG/1.1/DTD/svg11.dtd">
<!-- Generated by graphviz version 7.1.0 (20230121.1956)
 -->
<!-- Pages: 1 -->
<svg width="811pt" height="878pt"
 viewBox="0.00 0.00 811.00 878.00" xmlns="http://www.w3.org/2000/svg" xmlns:xlink="http://www.w3.org/1999/xlink">
<g id="graph0" class="graph" transform="scale(1 1) rotate(0) translate(4 874)">
<polygon fill="white" stroke="none" points="-4,4 -4,-874 807,-874 807,4 -4,4"/>
<!-- 00 -->
<g id="node1" class="node">
<title>00</title>
<ellipse fill="none" stroke="black" cx="227" cy="-857" rx="9" ry="9"/>
<ellipse fill="none" stroke="black" cx="227" cy="-857" rx="13" ry="13"/>
</g>
<!-- 01 -->
<g id="node2" class="node">
<title>01</title>
<ellipse fill="none" stroke="black" cx="227" cy="-784" rx="9" ry="9"/>
</g>
<!-- 00&#45;&gt;01 -->
<g id="edge1" class="edge">
<title>00&#45;&gt;01</title>
<path fill="none" stroke="black" d="M227,-843.63C227,-832.9 227,-817.17 227,-804.7"/>
<polygon fill="black" stroke="black" points="230.5,-804.75 227,-794.75 223.5,-804.75 230.5,-804.75"/>
<text text-anchor="middle" x="376" y="-814.8" font-family="Courier,monospace" font-weight="bold" font-size="14.00" fill="blue">vrk&#45;project&#45;build [make&#45;opts] [&lt;vm&gt;]</text>
</g>
<!-- 02 -->
<g id="node3" class="node">
<title>02</title>
<ellipse fill="none" stroke="black" cx="227" cy="-715" rx="9" ry="9"/>
</g>
<!-- 01&#45;&gt;02 -->
<g id="edge2" class="edge">
<title>01&#45;&gt;02</title>
<path fill="none" stroke="black" d="M227,-774.51C227,-764.8 227,-748.55 227,-735.64"/>
<polygon fill="black" stroke="black" points="230.5,-735.72 227,-725.72 223.5,-735.72 230.5,-735.72"/>
<text text-anchor="middle" x="297.5" y="-745.8" font-family="Courier,monospace" font-weight="bold" font-size="14.00" fill="blue">vrk&#45;vm&#45;build &lt;vm&gt;</text>
</g>
<!-- 10 -->
<g id="node4" class="node">
<title>10</title>
<ellipse fill="none" stroke="red" cx="13" cy="-646" rx="9" ry="9"/>
</g>
<!-- 02&#45;&gt;10 -->
<g id="edge3" class="edge">
<title>02&#45;&gt;10</title>
<path fill="none" stroke="black" d="M217.73,-713.57C195.93,-712.51 139.65,-709.46 91.6,-704.33"/>
<path fill="none" stroke="red" d="M91.6,-704.33C53.27,-700.23 20.18,-694.81 14,-688 8.79,-682.26 7.83,-673.98 8.45,-666.36"/>
<polygon fill="red" stroke="red" points="11.89,-667.01 10.16,-656.55 4.99,-665.8 11.89,-667.01"/>
<text text-anchor="middle" x="216.5" y="-676.8" font-family="Courier,monospace" font-weight="bold" font-size="14.00">vrk&#45;basevm&#45;build &lt;basevm|basevm&#45;description&#45;file&gt;</text>
</g>
<!-- 15 -->
<g id="node5" class="node">
<title>15</title>
<ellipse fill="none" stroke="red" cx="441" cy="-646" rx="9" ry="9"/>
</g>
<!-- 02&#45;&gt;15 -->
<g id="edge4" class="edge">
<title>02&#45;&gt;15</title>
<path fill="none" stroke="black" d="M235.98,-713.84C255.36,-713.41 302.85,-711.88 345.5,-706.68"/>
<path fill="none" stroke="red" d="M345.5,-706.68C377.14,-702.82 406.11,-696.94 419,-688 426.58,-682.74 431.78,-674.01 435.21,-665.96"/>
<polygon fill="red" stroke="red" points="438.5,-667.14 438.54,-656.55 431.9,-664.81 438.5,-667.14"/>
<text text-anchor="middle" x="617" y="-676.8" font-family="Courier,monospace" font-weight="bold" font-size="14.00">vrk&#45;vm&#45;clone &lt;proto&gt; &lt;vm|vm&#45;description&#45;file&gt;</text>
</g>
<!-- 20 -->
<g id="node6" class="node">
<title>20</title>
<ellipse fill="none" stroke="red" cx="13" cy="-577" rx="9" ry="9"/>
</g>
<!-- 10&#45;&gt;20 -->
<g id="edge5" class="edge">
<title>10&#45;&gt;20</title>
<path fill="none" stroke="red" d="M13,-636.51C13,-626.8 13,-610.55 13,-597.64"/>
<polygon fill="red" stroke="red" points="16.5,-597.72 13,-587.72 9.5,-597.72 16.5,-597.72"/>
<text text-anchor="middle" x="83.5" y="-607.8" font-family="Courier,monospace" font-size="14.00">vm&#45;setup &lt;basevm&gt;</text>
</g>
<!-- 25 -->
<g id="node7" class="node">
<title>25</title>
<ellipse fill="none" stroke="red" cx="441" cy="-577" rx="9" ry="9"/>
</g>
<!-- 15&#45;&gt;25 -->
<g id="edge6" class="edge">
<title>15&#45;&gt;25</title>
<path fill="none" stroke="red" d="M441,-636.51C441,-626.8 441,-610.55 441,-597.64"/>
<polygon fill="red" stroke="red" points="444.5,-597.72 441,-587.72 437.5,-597.72 444.5,-597.72"/>
<text text-anchor="middle" x="528" y="-607.8" font-family="Courier,monospace" font-size="14.00">vm&#45;setup &lt;vm&gt; &lt;proto&gt;</text>
</g>
<!-- 30 -->
<g id="node8" class="node">
<title>30</title>
<ellipse fill="none" stroke="red" cx="13" cy="-508" rx="9" ry="9"/>
</g>
<!-- 20&#45;&gt;30 -->
<g id="edge7" class="edge">
<title>20&#45;&gt;30</title>
<path fill="none" stroke="red" d="M13,-567.51C13,-557.8 13,-541.55 13,-528.64"/>
<polygon fill="red" stroke="red" points="16.5,-528.72 13,-518.72 9.5,-528.72 16.5,-528.72"/>
<text text-anchor="middle" x="100" y="-538.8" font-family="Courier,monospace" font-size="14.00">vm&#45;config&#45;hw &lt;basevm&gt;</text>
</g>
<!-- 45 -->
<g id="node10" class="node">
<title>45</title>
<ellipse fill="none" stroke="red" cx="441" cy="-439" rx="9" ry="9"/>
</g>
<!-- 25&#45;&gt;45 -->
<g id="edge9" class="edge">
<title>25&#45;&gt;45</title>
<path fill="none" stroke="red" d="M441,-567.9C441,-546.78 441,-489.6 441,-459.36"/>
<polygon fill="red" stroke="red" points="444.5,-459.74 441,-449.74 437.5,-459.74 444.5,-459.74"/>
<text text-anchor="middle" x="511.5" y="-504.3" font-family="Courier,monospace" font-size="14.00">vm&#45;config&#45;hw &lt;vm&gt;</text>
</g>
<!-- 40 -->
<g id="node9" class="node">
<title>40</title>
<ellipse fill="none" stroke="green" cx="13" cy="-439" rx="9" ry="9"/>
</g>
<!-- 30&#45;&gt;40 -->
<g id="edge8" class="edge">
<title>30&#45;&gt;40</title>
<path fill="none" stroke="red" d="M13,-498.51C13,-493.66 13,-487.16 13,-480.27"/>
<path fill="none" stroke="green" d="M13,-480.27C13,-473.38 13,-466.1 13,-459.64"/>
<polygon fill="green" stroke="green" points="16.5,-459.72 13,-449.72 9.5,-459.72 16.5,-459.72"/>
<text text-anchor="middle" x="100" y="-469.8" font-family="Courier,monospace" font-size="14.00">vrk&#45;vm&#45;start &lt;basevm&gt;</text>
</g>
<!-- 50 -->
<g id="node11" class="node">
<title>50</title>
<ellipse fill="none" stroke="green" cx="13" cy="-370" rx="9" ry="9"/>
</g>
<!-- 40&#45;&gt;50 -->
<g id="edge10" class="edge">
<title>40&#45;&gt;50</title>
<path fill="none" stroke="green" d="M13,-429.51C13,-419.8 13,-403.55 13,-390.64"/>
<polygon fill="green" stroke="green" points="16.5,-390.72 13,-380.72 9.5,-390.72 16.5,-390.72"/>
<text text-anchor="middle" x="79.5" y="-400.8" font-family="Courier,monospace" font-size="14.00">vm&#45;init &lt;basevm&gt;</text>
</g>
<!-- 55 -->
<g id="node12" class="node">
<title>55</title>
<ellipse fill="none" stroke="green" cx="441" cy="-370" rx="9" ry="9"/>
</g>
<!-- 45&#45;&gt;55 -->
<g id="edge11" class="edge">
<title>45&#45;&gt;55</title>
<path fill="none" stroke="red" d="M441,-429.51C441,-424.66 441,-418.16 441,-411.27"/>
<path fill="none" stroke="green" d="M441,-411.27C441,-404.38 441,-397.1 441,-390.64"/>
<polygon fill="green" stroke="green" points="444.5,-390.72 441,-380.72 437.5,-390.72 444.5,-390.72"/>
<text text-anchor="middle" x="524" y="-400.8" font-family="Courier,monospace" font-size="14.00">vm&#45;init &lt;vm&gt; &lt;proto&gt;</text>
</g>
<!-- 60 -->
<g id="node13" class="node">
<title>60</title>
<ellipse fill="none" stroke="green" cx="13" cy="-301" rx="9" ry="9"/>
</g>
<!-- 50&#45;&gt;60 -->
<g id="edge12" class="edge">
<title>50&#45;&gt;60</title>
<path fill="none" stroke="green" d="M13,-360.51C13,-350.8 13,-334.55 13,-321.64"/>
<polygon fill="green" stroke="green" points="16.5,-321.72 13,-311.72 9.5,-321.72 16.5,-321.72"/>
<text text-anchor="middle" x="87.5" y="-331.8" font-family="Courier,monospace" font-weight="bold" font-size="14.00" fill="purple">&lt;vm_pre_init_hook&gt;</text>
</g>
<!-- 65 -->
<g id="node14" class="node">
<title>65</title>
<ellipse fill="none" stroke="green" cx="441" cy="-301" rx="9" ry="9"/>
</g>
<!-- 55&#45;&gt;65 -->
<g id="edge13" class="edge">
<title>55&#45;&gt;65</title>
<path fill="none" stroke="green" d="M441,-360.51C441,-350.8 441,-334.55 441,-321.64"/>
<polygon fill="green" stroke="green" points="444.5,-321.72 441,-311.72 437.5,-321.72 444.5,-321.72"/>
<text text-anchor="middle" x="515.5" y="-331.8" font-family="Courier,monospace" font-weight="bold" font-size="14.00" fill="purple">&lt;vm_pre_init_hook&gt;</text>
</g>
<!-- 70 -->
<g id="node15" class="node">
<title>70</title>
<ellipse fill="none" stroke="green" cx="13" cy="-232" rx="9" ry="9"/>
</g>
<!-- 60&#45;&gt;70 -->
<g id="edge14" class="edge">
<title>60&#45;&gt;70</title>
<path fill="none" stroke="green" d="M13,-291.51C13,-281.8 13,-265.55 13,-252.64"/>
<polygon fill="green" stroke="green" points="16.5,-252.72 13,-242.72 9.5,-252.72 16.5,-252.72"/>
<text text-anchor="middle" x="153.5" y="-262.8" font-family="Courier,monospace" font-size="14.00">guest&#45;init.kit/guest&#45;init &lt;basevm&gt;</text>
</g>
<!-- 75 -->
<g id="node16" class="node">
<title>75</title>
<ellipse fill="none" stroke="green" cx="441" cy="-232" rx="9" ry="9"/>
</g>
<!-- 65&#45;&gt;75 -->
<g id="edge15" class="edge">
<title>65&#45;&gt;75</title>
<path fill="none" stroke="green" d="M441,-291.51C441,-281.8 441,-265.55 441,-252.64"/>
<polygon fill="green" stroke="green" points="444.5,-252.72 441,-242.72 437.5,-252.72 444.5,-252.72"/>
<text text-anchor="middle" x="598" y="-262.8" font-family="Courier,monospace" font-size="14.00">guest&#45;init.kit/guest&#45;init &lt;vm&gt; &lt;proto&gt;</text>
</g>
<!-- 80 -->
<g id="node17" class="node">
<title>80</title>
<ellipse fill="none" stroke="green" cx="13" cy="-159" rx="9" ry="9"/>
</g>
<!-- 70&#45;&gt;80 -->
<g id="edge16" class="edge">
<title>70&#45;&gt;80</title>
<path fill="none" stroke="green" d="M13,-222.58C13,-212.11 13,-193.93 13,-179.85"/>
<polygon fill="green" stroke="green" points="16.5,-179.93 13,-169.93 9.5,-179.93 16.5,-179.93"/>
<text text-anchor="middle" x="91.5" y="-193.8" font-family="Courier,monospace" font-weight="bold" font-size="14.00" fill="purple">&lt;vm_post_init_hook&gt;</text>
</g>
<!-- 85 -->
<g id="node18" class="node">
<title>85</title>
<ellipse fill="none" stroke="green" cx="441" cy="-159" rx="9" ry="9"/>
<ellipse fill="none" stroke="green" cx="441" cy="-159" rx="13" ry="13"/>
</g>
<!-- 75&#45;&gt;85 -->
<g id="edge17" class="edge">
<title>75&#45;&gt;85</title>
<path fill="none" stroke="green" d="M441,-222.58C441,-213.07 441,-197.19 441,-183.8"/>
<polygon fill="green" stroke="green" points="444.5,-183.98 441,-173.98 437.5,-183.98 444.5,-183.98"/>
<text text-anchor="middle" x="519.5" y="-193.8" font-family="Courier,monospace" font-weight="bold" font-size="14.00" fill="purple">&lt;vm_post_init_hook&gt;</text>
</g>
<!-- 90 -->
<g id="node19" class="node">
<title>90</title>
<ellipse fill="none" stroke="red" cx="13" cy="-86" rx="9" ry="9"/>
</g>
<!-- 80&#45;&gt;90 -->
<g id="edge18" class="edge">
<title>80&#45;&gt;90</title>
<path fill="none" stroke="green" d="M13,-149.58C13,-144.35 13,-137.18 13,-129.57"/>
<path fill="none" stroke="red" d="M13,-129.57C13,-121.96 13,-113.89 13,-106.85"/>
<polygon fill="red" stroke="red" points="16.5,-106.93 13,-96.93 9.5,-106.93 16.5,-106.93"/>
<text text-anchor="middle" x="79.5" y="-116.8" font-family="Courier,monospace" font-size="14.00">vm&#45;stop &lt;basevm&gt;</text>
</g>
<!-- 95 -->
<g id="node20" class="node">
<title>95</title>
<ellipse fill="none" stroke="red" cx="13" cy="-13" rx="9" ry="9"/>
<ellipse fill="none" stroke="red" cx="13" cy="-13" rx="13" ry="13"/>
</g>
<!-- 90&#45;&gt;95 -->
<g id="edge19" class="edge">
<title>90&#45;&gt;95</title>
<path fill="none" stroke="red" d="M13,-76.58C13,-67.07 13,-51.19 13,-37.8"/>
<polygon fill="red" stroke="red" points="16.5,-37.98 13,-27.98 9.5,-37.98 16.5,-37.98"/>
<text text-anchor="middle" x="100" y="-47.8" font-family="Courier,monospace" font-size="14.00">vm&#45;config&#45;hw &lt;basevm&gt;</text>
</g>
</g>
</svg>
