<?xml version="1.0" encoding="UTF-8" standalone="no"?>
<!DOCTYPE svg PUBLIC "-//W3C//DTD SVG 1.1//EN"
 "http://www.w3.org/Graphics/SVG/1.1/DTD/svg11.dtd">
<!-- Generated by graphviz version 2.43.0 (0)
 -->
<!-- Title: %3 Pages: 1 -->
<svg width="928pt" height="567pt"
 viewBox="0.00 0.00 928.00 567.08" xmlns="http://www.w3.org/2000/svg" xmlns:xlink="http://www.w3.org/1999/xlink">
<g id="graph0" class="graph" transform="scale(1 1) rotate(0) translate(4 563.08)">
<title>%3</title>
<polygon fill="white" stroke="transparent" points="-4,4 -4,-563.08 924,-563.08 924,4 -4,4"/>
<text text-anchor="middle" x="460" y="-7.8" font-family="Times,serif" font-size="14.00" fill="orange">~/vaark/doc/graphics/generate/user&#45;guide&#45;example&#45;1.vrk</text>
<g id="clust1" class="cluster">
<title>cluster&#45;my&#45;appserv&#45;1&#45;dev.vm</title>
<path fill="none" stroke="black" stroke-width="2" d="M207,-131.08C207,-131.08 342,-131.08 342,-131.08 348,-131.08 354,-137.08 354,-143.08 354,-143.08 354,-171.08 354,-171.08 354,-177.08 348,-183.08 342,-183.08 342,-183.08 207,-183.08 207,-183.08 201,-183.08 195,-177.08 195,-171.08 195,-171.08 195,-143.08 195,-143.08 195,-137.08 201,-131.08 207,-131.08"/>
</g>
<g id="clust2" class="cluster">
<title>cluster&#45;my&#45;appserv&#45;1&#45;prod.vm</title>
<path fill="none" stroke="black" stroke-width="2" d="M20,-119.08C20,-119.08 163,-119.08 163,-119.08 169,-119.08 175,-125.08 175,-131.08 175,-131.08 175,-159.08 175,-159.08 175,-165.08 169,-171.08 163,-171.08 163,-171.08 20,-171.08 20,-171.08 14,-171.08 8,-165.08 8,-159.08 8,-159.08 8,-131.08 8,-131.08 8,-125.08 14,-119.08 20,-119.08"/>
</g>
<g id="clust3" class="cluster">
<title>cluster&#45;my&#45;appserv&#45;2&#45;dev.vm</title>
<path fill="none" stroke="black" stroke-width="2" d="M207,-39.08C207,-39.08 342,-39.08 342,-39.08 348,-39.08 354,-45.08 354,-51.08 354,-51.08 354,-79.08 354,-79.08 354,-85.08 348,-91.08 342,-91.08 342,-91.08 207,-91.08 207,-91.08 201,-91.08 195,-85.08 195,-79.08 195,-79.08 195,-51.08 195,-51.08 195,-45.08 201,-39.08 207,-39.08"/>
</g>
<g id="clust4" class="cluster">
<title>cluster&#45;my&#45;appserv&#45;2&#45;prod.vm</title>
<path fill="none" stroke="black" stroke-width="2" d="M20,-39.08C20,-39.08 163,-39.08 163,-39.08 169,-39.08 175,-45.08 175,-51.08 175,-51.08 175,-79.08 175,-79.08 175,-85.08 169,-91.08 163,-91.08 163,-91.08 20,-91.08 20,-91.08 14,-91.08 8,-85.08 8,-79.08 8,-79.08 8,-51.08 8,-51.08 8,-45.08 14,-39.08 20,-39.08"/>
</g>
<g id="clust5" class="cluster">
<title>cluster&#45;my&#45;appserv&#45;proto.vm</title>
<path fill="none" stroke="black" stroke-width="2" d="M386,-85.08C386,-85.08 521,-85.08 521,-85.08 527,-85.08 533,-91.08 533,-97.08 533,-97.08 533,-125.08 533,-125.08 533,-131.08 527,-137.08 521,-137.08 521,-137.08 386,-137.08 386,-137.08 380,-137.08 374,-131.08 374,-125.08 374,-125.08 374,-97.08 374,-97.08 374,-91.08 380,-85.08 386,-85.08"/>
</g>
<g id="clust6" class="cluster">
<title>cluster&#45;my&#45;client&#45;proto.vm</title>
<path fill="none" stroke="black" stroke-width="2" d="M568,-200.08C568,-200.08 685,-200.08 685,-200.08 691,-200.08 697,-206.08 697,-212.08 697,-212.08 697,-240.08 697,-240.08 697,-246.08 691,-252.08 685,-252.08 685,-252.08 568,-252.08 568,-252.08 562,-252.08 556,-246.08 556,-240.08 556,-240.08 556,-212.08 556,-212.08 556,-206.08 562,-200.08 568,-200.08"/>
</g>
<g id="clust7" class="cluster">
<title>cluster&#45;my&#45;kafka&#45;dev.vm</title>
<path fill="none" stroke="black" stroke-width="2" d="M223,-499.08C223,-499.08 326,-499.08 326,-499.08 332,-499.08 338,-505.08 338,-511.08 338,-511.08 338,-539.08 338,-539.08 338,-545.08 332,-551.08 326,-551.08 326,-551.08 223,-551.08 223,-551.08 217,-551.08 211,-545.08 211,-539.08 211,-539.08 211,-511.08 211,-511.08 211,-505.08 217,-499.08 223,-499.08"/>
</g>
<g id="clust8" class="cluster">
<title>cluster&#45;my&#45;kafka&#45;prod.vm</title>
<path fill="none" stroke="black" stroke-width="2" d="M36,-476.08C36,-476.08 147,-476.08 147,-476.08 153,-476.08 159,-482.08 159,-488.08 159,-488.08 159,-516.08 159,-516.08 159,-522.08 153,-528.08 147,-528.08 147,-528.08 36,-528.08 36,-528.08 30,-528.08 24,-522.08 24,-516.08 24,-516.08 24,-488.08 24,-488.08 24,-482.08 30,-476.08 36,-476.08"/>
</g>
<g id="clust9" class="cluster">
<title>cluster&#45;my&#45;kafka&#45;proto.vm</title>
<path fill="none" stroke="black" stroke-width="2" d="M395.5,-453.08C395.5,-453.08 511.5,-453.08 511.5,-453.08 517.5,-453.08 523.5,-459.08 523.5,-465.08 523.5,-465.08 523.5,-493.08 523.5,-493.08 523.5,-499.08 517.5,-505.08 511.5,-505.08 511.5,-505.08 395.5,-505.08 395.5,-505.08 389.5,-505.08 383.5,-499.08 383.5,-493.08 383.5,-493.08 383.5,-465.08 383.5,-465.08 383.5,-459.08 389.5,-453.08 395.5,-453.08"/>
</g>
<g id="clust10" class="cluster">
<title>cluster&#45;my&#45;lb&#45;dev.vm</title>
<path fill="none" stroke="black" stroke-width="2" d="M235.5,-223.08C235.5,-223.08 313.5,-223.08 313.5,-223.08 319.5,-223.08 325.5,-229.08 325.5,-235.08 325.5,-235.08 325.5,-263.08 325.5,-263.08 325.5,-269.08 319.5,-275.08 313.5,-275.08 313.5,-275.08 235.5,-275.08 235.5,-275.08 229.5,-275.08 223.5,-269.08 223.5,-263.08 223.5,-263.08 223.5,-235.08 223.5,-235.08 223.5,-229.08 229.5,-223.08 235.5,-223.08"/>
</g>
<g id="clust11" class="cluster">
<title>cluster&#45;my&#45;lb&#45;prod.vm</title>
<path fill="none" stroke="black" stroke-width="2" d="M48.5,-188.08C48.5,-188.08 134.5,-188.08 134.5,-188.08 140.5,-188.08 146.5,-194.08 146.5,-200.08 146.5,-200.08 146.5,-228.08 146.5,-228.08 146.5,-234.08 140.5,-240.08 134.5,-240.08 134.5,-240.08 48.5,-240.08 48.5,-240.08 42.5,-240.08 36.5,-234.08 36.5,-228.08 36.5,-228.08 36.5,-200.08 36.5,-200.08 36.5,-194.08 42.5,-188.08 48.5,-188.08"/>
</g>
<g id="clust12" class="cluster">
<title>cluster&#45;my&#45;lb&#45;proto.vm</title>
<path fill="none" stroke="black" stroke-width="2" d="M408,-200.08C408,-200.08 499,-200.08 499,-200.08 505,-200.08 511,-206.08 511,-212.08 511,-212.08 511,-240.08 511,-240.08 511,-246.08 505,-252.08 499,-252.08 499,-252.08 408,-252.08 408,-252.08 402,-252.08 396,-246.08 396,-240.08 396,-240.08 396,-212.08 396,-212.08 396,-206.08 402,-200.08 408,-200.08"/>
</g>
<g id="clust13" class="cluster">
<title>cluster&#45;my&#45;mongo&#45;dev.vm</title>
<path fill="none" stroke="black" stroke-width="2" d="M218,-407.08C218,-407.08 331,-407.08 331,-407.08 337,-407.08 343,-413.08 343,-419.08 343,-419.08 343,-447.08 343,-447.08 343,-453.08 337,-459.08 331,-459.08 331,-459.08 218,-459.08 218,-459.08 212,-459.08 206,-453.08 206,-447.08 206,-447.08 206,-419.08 206,-419.08 206,-413.08 212,-407.08 218,-407.08"/>
</g>
<g id="clust14" class="cluster">
<title>cluster&#45;my&#45;mongo&#45;prod.vm</title>
<path fill="none" stroke="black" stroke-width="2" d="M31.5,-377.08C31.5,-377.08 151.5,-377.08 151.5,-377.08 157.5,-377.08 163.5,-383.08 163.5,-389.08 163.5,-389.08 163.5,-417.08 163.5,-417.08 163.5,-423.08 157.5,-429.08 151.5,-429.08 151.5,-429.08 31.5,-429.08 31.5,-429.08 25.5,-429.08 19.5,-423.08 19.5,-417.08 19.5,-417.08 19.5,-389.08 19.5,-389.08 19.5,-383.08 25.5,-377.08 31.5,-377.08"/>
</g>
<g id="clust15" class="cluster">
<title>cluster&#45;my&#45;mongo&#45;proto.vm</title>
<path fill="none" stroke="black" stroke-width="2" d="M390.5,-368.08C390.5,-368.08 516.5,-368.08 516.5,-368.08 522.5,-368.08 528.5,-374.08 528.5,-380.08 528.5,-380.08 528.5,-408.08 528.5,-408.08 528.5,-414.08 522.5,-420.08 516.5,-420.08 516.5,-420.08 390.5,-420.08 390.5,-420.08 384.5,-420.08 378.5,-414.08 378.5,-408.08 378.5,-408.08 378.5,-380.08 378.5,-380.08 378.5,-374.08 384.5,-368.08 390.5,-368.08"/>
</g>
<g id="clust16" class="cluster">
<title>cluster&#45;my&#45;server&#45;proto.vm</title>
<path fill="none" stroke="black" stroke-width="2" d="M565,-338.08C565,-338.08 688,-338.08 688,-338.08 694,-338.08 700,-344.08 700,-350.08 700,-350.08 700,-378.08 700,-378.08 700,-384.08 694,-390.08 688,-390.08 688,-390.08 565,-390.08 565,-390.08 559,-390.08 553,-384.08 553,-378.08 553,-378.08 553,-350.08 553,-350.08 553,-344.08 559,-338.08 565,-338.08"/>
</g>
<g id="clust17" class="cluster">
<title>cluster&#45;my&#45;sql&#45;dev.vm</title>
<path fill="none" stroke="black" stroke-width="2" d="M231.5,-315.08C231.5,-315.08 317.5,-315.08 317.5,-315.08 323.5,-315.08 329.5,-321.08 329.5,-327.08 329.5,-327.08 329.5,-355.08 329.5,-355.08 329.5,-361.08 323.5,-367.08 317.5,-367.08 317.5,-367.08 231.5,-367.08 231.5,-367.08 225.5,-367.08 219.5,-361.08 219.5,-355.08 219.5,-355.08 219.5,-327.08 219.5,-327.08 219.5,-321.08 225.5,-315.08 231.5,-315.08"/>
</g>
<g id="clust18" class="cluster">
<title>cluster&#45;my&#45;sql&#45;prod.vm</title>
<path fill="none" stroke="black" stroke-width="2" d="M45,-285.08C45,-285.08 138,-285.08 138,-285.08 144,-285.08 150,-291.08 150,-297.08 150,-297.08 150,-325.08 150,-325.08 150,-331.08 144,-337.08 138,-337.08 138,-337.08 45,-337.08 45,-337.08 39,-337.08 33,-331.08 33,-325.08 33,-325.08 33,-297.08 33,-297.08 33,-291.08 39,-285.08 45,-285.08"/>
</g>
<g id="clust19" class="cluster">
<title>cluster&#45;my&#45;sql&#45;proto.vm</title>
<path fill="none" stroke="black" stroke-width="2" d="M404,-308.08C404,-308.08 503,-308.08 503,-308.08 509,-308.08 515,-314.08 515,-320.08 515,-320.08 515,-348.08 515,-348.08 515,-354.08 509,-360.08 503,-360.08 503,-360.08 404,-360.08 404,-360.08 398,-360.08 392,-354.08 392,-348.08 392,-348.08 392,-320.08 392,-320.08 392,-314.08 398,-308.08 404,-308.08"/>
</g>
<g id="clust20" class="cluster">
<title>cluster&#45;ubuntu&#45;server&#45;20&#45;04&#45;5.vm</title>
<path fill="none" stroke="black" stroke-width="2" d="M732,-239.08C732,-239.08 900,-239.08 900,-239.08 906,-239.08 912,-245.08 912,-251.08 912,-251.08 912,-279.08 912,-279.08 912,-285.08 906,-291.08 900,-291.08 900,-291.08 732,-291.08 732,-291.08 726,-291.08 720,-285.08 720,-279.08 720,-279.08 720,-251.08 720,-251.08 720,-245.08 726,-239.08 732,-239.08"/>
</g>
<!-- my&#45;appserv&#45;1&#45;dev.vm -->
<g id="node1" class="node">
<title>my&#45;appserv&#45;1&#45;dev.vm</title>
<path fill="none" stroke="black" d="M334,-175.08C334,-175.08 215,-175.08 215,-175.08 209,-175.08 203,-169.08 203,-163.08 203,-163.08 203,-151.08 203,-151.08 203,-145.08 209,-139.08 215,-139.08 215,-139.08 334,-139.08 334,-139.08 340,-139.08 346,-145.08 346,-151.08 346,-151.08 346,-163.08 346,-163.08 346,-169.08 340,-175.08 334,-175.08"/>
<text text-anchor="middle" x="274.5" y="-153.38" font-family="Times,serif" font-size="14.00">my&#45;appserv&#45;1&#45;dev</text>
</g>
<!-- my&#45;appserv&#45;proto.vm -->
<g id="node5" class="node">
<title>my&#45;appserv&#45;proto.vm</title>
<path fill="none" stroke="black" d="M513,-129.08C513,-129.08 394,-129.08 394,-129.08 388,-129.08 382,-123.08 382,-117.08 382,-117.08 382,-105.08 382,-105.08 382,-99.08 388,-93.08 394,-93.08 394,-93.08 513,-93.08 513,-93.08 519,-93.08 525,-99.08 525,-105.08 525,-105.08 525,-117.08 525,-117.08 525,-123.08 519,-129.08 513,-129.08"/>
<text text-anchor="middle" x="453.5" y="-107.38" font-family="Times,serif" font-size="14.00">my&#45;appserv&#45;proto</text>
</g>
<!-- my&#45;appserv&#45;1&#45;dev.vm&#45;&gt;my&#45;appserv&#45;proto.vm -->
<g id="edge1" class="edge">
<title>my&#45;appserv&#45;1&#45;dev.vm&#45;&gt;my&#45;appserv&#45;proto.vm</title>
<path fill="none" stroke="black" d="M344.95,-139.03C354.22,-136.62 363.79,-134.14 373.21,-131.69"/>
<polygon fill="black" stroke="black" points="374.16,-135.06 382.96,-129.15 372.4,-128.28 374.16,-135.06"/>
</g>
<!-- my&#45;appserv&#45;1&#45;prod.vm -->
<g id="node2" class="node">
<title>my&#45;appserv&#45;1&#45;prod.vm</title>
<path fill="none" stroke="black" d="M155,-163.08C155,-163.08 28,-163.08 28,-163.08 22,-163.08 16,-157.08 16,-151.08 16,-151.08 16,-139.08 16,-139.08 16,-133.08 22,-127.08 28,-127.08 28,-127.08 155,-127.08 155,-127.08 161,-127.08 167,-133.08 167,-139.08 167,-139.08 167,-151.08 167,-151.08 167,-157.08 161,-163.08 155,-163.08"/>
<text text-anchor="middle" x="91.5" y="-141.38" font-family="Times,serif" font-size="14.00">my&#45;appserv&#45;1&#45;prod</text>
</g>
<!-- my&#45;appserv&#45;1&#45;prod.vm&#45;&gt;my&#45;appserv&#45;1&#45;dev.vm -->
<!-- my&#45;appserv&#45;1&#45;prod.vm&#45;&gt;my&#45;appserv&#45;proto.vm -->
<g id="edge2" class="edge">
<title>my&#45;appserv&#45;1&#45;prod.vm&#45;&gt;my&#45;appserv&#45;proto.vm</title>
<path fill="none" stroke="black" d="M167.09,-130.98C176.46,-129.51 185.94,-128.15 195,-127.08 253.88,-120.1 320.72,-116.06 371.55,-113.79"/>
<polygon fill="black" stroke="black" points="371.98,-117.27 381.82,-113.34 371.67,-110.28 371.98,-117.27"/>
</g>
<!-- my&#45;appserv&#45;2&#45;dev.vm -->
<g id="node3" class="node">
<title>my&#45;appserv&#45;2&#45;dev.vm</title>
<path fill="none" stroke="black" d="M334,-83.08C334,-83.08 215,-83.08 215,-83.08 209,-83.08 203,-77.08 203,-71.08 203,-71.08 203,-59.08 203,-59.08 203,-53.08 209,-47.08 215,-47.08 215,-47.08 334,-47.08 334,-47.08 340,-47.08 346,-53.08 346,-59.08 346,-59.08 346,-71.08 346,-71.08 346,-77.08 340,-83.08 334,-83.08"/>
<text text-anchor="middle" x="274.5" y="-61.38" font-family="Times,serif" font-size="14.00">my&#45;appserv&#45;2&#45;dev</text>
</g>
<!-- my&#45;appserv&#45;2&#45;dev.vm&#45;&gt;my&#45;appserv&#45;proto.vm -->
<g id="edge3" class="edge">
<title>my&#45;appserv&#45;2&#45;dev.vm&#45;&gt;my&#45;appserv&#45;proto.vm</title>
<path fill="none" stroke="black" d="M344.95,-83.13C354.22,-85.54 363.79,-88.03 373.21,-90.47"/>
<polygon fill="black" stroke="black" points="372.4,-93.88 382.96,-93.01 374.16,-87.11 372.4,-93.88"/>
</g>
<!-- my&#45;appserv&#45;2&#45;prod.vm -->
<g id="node4" class="node">
<title>my&#45;appserv&#45;2&#45;prod.vm</title>
<path fill="none" stroke="black" d="M155,-83.08C155,-83.08 28,-83.08 28,-83.08 22,-83.08 16,-77.08 16,-71.08 16,-71.08 16,-59.08 16,-59.08 16,-53.08 22,-47.08 28,-47.08 28,-47.08 155,-47.08 155,-47.08 161,-47.08 167,-53.08 167,-59.08 167,-59.08 167,-71.08 167,-71.08 167,-77.08 161,-83.08 155,-83.08"/>
<text text-anchor="middle" x="91.5" y="-61.38" font-family="Times,serif" font-size="14.00">my&#45;appserv&#45;2&#45;prod</text>
</g>
<!-- my&#45;appserv&#45;2&#45;prod.vm&#45;&gt;my&#45;appserv&#45;2&#45;dev.vm -->
<!-- my&#45;appserv&#45;2&#45;prod.vm&#45;&gt;my&#45;appserv&#45;proto.vm -->
<g id="edge4" class="edge">
<title>my&#45;appserv&#45;2&#45;prod.vm&#45;&gt;my&#45;appserv&#45;proto.vm</title>
<path fill="none" stroke="black" d="M141.57,-47.03C195.16,-30.13 282.85,-10.82 354,-35.08 383.16,-45.02 410.4,-67.48 428.81,-85.42"/>
<polygon fill="black" stroke="black" points="426.6,-88.16 436.14,-92.78 431.56,-83.22 426.6,-88.16"/>
</g>
<!-- my&#45;client&#45;proto.vm -->
<g id="node6" class="node">
<title>my&#45;client&#45;proto.vm</title>
<path fill="none" stroke="black" d="M677,-244.08C677,-244.08 576,-244.08 576,-244.08 570,-244.08 564,-238.08 564,-232.08 564,-232.08 564,-220.08 564,-220.08 564,-214.08 570,-208.08 576,-208.08 576,-208.08 677,-208.08 677,-208.08 683,-208.08 689,-214.08 689,-220.08 689,-220.08 689,-232.08 689,-232.08 689,-238.08 683,-244.08 677,-244.08"/>
<text text-anchor="middle" x="626.5" y="-222.38" font-family="Times,serif" font-size="14.00">my&#45;client&#45;proto</text>
</g>
<!-- my&#45;appserv&#45;proto.vm&#45;&gt;my&#45;client&#45;proto.vm -->
<g id="edge5" class="edge">
<title>my&#45;appserv&#45;proto.vm&#45;&gt;my&#45;client&#45;proto.vm</title>
<path fill="none" stroke="black" d="M481.6,-129.3C510.86,-148.99 557.62,-180.43 589.85,-202.11"/>
<polygon fill="black" stroke="black" points="588.28,-205.27 598.53,-207.94 592.19,-199.46 588.28,-205.27"/>
</g>
<!-- ubuntu&#45;server&#45;20&#45;04&#45;5.vm -->
<g id="node20" class="node">
<title>ubuntu&#45;server&#45;20&#45;04&#45;5.vm</title>
<path fill="none" stroke="black" d="M892,-283.08C892,-283.08 740,-283.08 740,-283.08 734,-283.08 728,-277.08 728,-271.08 728,-271.08 728,-259.08 728,-259.08 728,-253.08 734,-247.08 740,-247.08 740,-247.08 892,-247.08 892,-247.08 898,-247.08 904,-253.08 904,-259.08 904,-259.08 904,-271.08 904,-271.08 904,-277.08 898,-283.08 892,-283.08"/>
<text text-anchor="middle" x="816" y="-261.38" font-family="Times,serif" font-size="14.00">ubuntu&#45;server&#45;20&#45;04&#45;5</text>
</g>
<!-- my&#45;client&#45;proto.vm&#45;&gt;ubuntu&#45;server&#45;20&#45;04&#45;5.vm -->
<g id="edge6" class="edge">
<title>my&#45;client&#45;proto.vm&#45;&gt;ubuntu&#45;server&#45;20&#45;04&#45;5.vm</title>
<path fill="none" stroke="black" d="M689.15,-238.91C698.52,-240.85 708.37,-242.9 718.27,-244.96"/>
<polygon fill="black" stroke="black" points="717.66,-248.41 728.16,-247.02 719.09,-241.56 717.66,-248.41"/>
</g>
<!-- my&#45;kafka&#45;dev.vm -->
<g id="node7" class="node">
<title>my&#45;kafka&#45;dev.vm</title>
<path fill="none" stroke="black" d="M318,-543.08C318,-543.08 231,-543.08 231,-543.08 225,-543.08 219,-537.08 219,-531.08 219,-531.08 219,-519.08 219,-519.08 219,-513.08 225,-507.08 231,-507.08 231,-507.08 318,-507.08 318,-507.08 324,-507.08 330,-513.08 330,-519.08 330,-519.08 330,-531.08 330,-531.08 330,-537.08 324,-543.08 318,-543.08"/>
<text text-anchor="middle" x="274.5" y="-521.38" font-family="Times,serif" font-size="14.00">my&#45;kafka&#45;dev</text>
</g>
<!-- my&#45;kafka&#45;proto.vm -->
<g id="node9" class="node">
<title>my&#45;kafka&#45;proto.vm</title>
<path fill="none" stroke="black" d="M503.5,-497.08C503.5,-497.08 403.5,-497.08 403.5,-497.08 397.5,-497.08 391.5,-491.08 391.5,-485.08 391.5,-485.08 391.5,-473.08 391.5,-473.08 391.5,-467.08 397.5,-461.08 403.5,-461.08 403.5,-461.08 503.5,-461.08 503.5,-461.08 509.5,-461.08 515.5,-467.08 515.5,-473.08 515.5,-473.08 515.5,-485.08 515.5,-485.08 515.5,-491.08 509.5,-497.08 503.5,-497.08"/>
<text text-anchor="middle" x="453.5" y="-475.38" font-family="Times,serif" font-size="14.00">my&#45;kafka&#45;proto</text>
</g>
<!-- my&#45;kafka&#45;dev.vm&#45;&gt;my&#45;kafka&#45;proto.vm -->
<g id="edge7" class="edge">
<title>my&#45;kafka&#45;dev.vm&#45;&gt;my&#45;kafka&#45;proto.vm</title>
<path fill="none" stroke="black" d="M330.05,-510.9C346.27,-506.69 364.28,-502.01 381.39,-497.56"/>
<polygon fill="black" stroke="black" points="382.54,-500.88 391.34,-494.98 380.78,-494.1 382.54,-500.88"/>
</g>
<!-- my&#45;kafka&#45;prod.vm -->
<g id="node8" class="node">
<title>my&#45;kafka&#45;prod.vm</title>
<path fill="none" stroke="black" d="M139,-520.08C139,-520.08 44,-520.08 44,-520.08 38,-520.08 32,-514.08 32,-508.08 32,-508.08 32,-496.08 32,-496.08 32,-490.08 38,-484.08 44,-484.08 44,-484.08 139,-484.08 139,-484.08 145,-484.08 151,-490.08 151,-496.08 151,-496.08 151,-508.08 151,-508.08 151,-514.08 145,-520.08 139,-520.08"/>
<text text-anchor="middle" x="91.5" y="-498.38" font-family="Times,serif" font-size="14.00">my&#45;kafka&#45;prod</text>
</g>
<!-- my&#45;kafka&#45;prod.vm&#45;&gt;my&#45;kafka&#45;dev.vm -->
<!-- my&#45;kafka&#45;prod.vm&#45;&gt;my&#45;kafka&#45;proto.vm -->
<g id="edge8" class="edge">
<title>my&#45;kafka&#45;prod.vm&#45;&gt;my&#45;kafka&#45;proto.vm</title>
<path fill="none" stroke="black" d="M151.04,-498.02C165.41,-497.04 180.76,-496.01 195,-495.08 257.96,-490.98 329.59,-486.54 381.29,-483.39"/>
<polygon fill="black" stroke="black" points="381.59,-486.88 391.36,-482.77 381.17,-479.89 381.59,-486.88"/>
</g>
<!-- my&#45;server&#45;proto.vm -->
<g id="node16" class="node">
<title>my&#45;server&#45;proto.vm</title>
<path fill="none" stroke="black" d="M680,-382.08C680,-382.08 573,-382.08 573,-382.08 567,-382.08 561,-376.08 561,-370.08 561,-370.08 561,-358.08 561,-358.08 561,-352.08 567,-346.08 573,-346.08 573,-346.08 680,-346.08 680,-346.08 686,-346.08 692,-352.08 692,-358.08 692,-358.08 692,-370.08 692,-370.08 692,-376.08 686,-382.08 680,-382.08"/>
<text text-anchor="middle" x="626.5" y="-360.38" font-family="Times,serif" font-size="14.00">my&#45;server&#45;proto</text>
</g>
<!-- my&#45;kafka&#45;proto.vm&#45;&gt;my&#45;server&#45;proto.vm -->
<g id="edge9" class="edge">
<title>my&#45;kafka&#45;proto.vm&#45;&gt;my&#45;server&#45;proto.vm</title>
<path fill="none" stroke="black" d="M481.6,-460.86C510.86,-441.18 557.62,-409.73 589.85,-388.05"/>
<polygon fill="black" stroke="black" points="592.19,-390.7 598.53,-382.22 588.28,-384.89 592.19,-390.7"/>
</g>
<!-- my&#45;lb&#45;dev.vm -->
<g id="node10" class="node">
<title>my&#45;lb&#45;dev.vm</title>
<path fill="none" stroke="black" d="M305.5,-267.08C305.5,-267.08 243.5,-267.08 243.5,-267.08 237.5,-267.08 231.5,-261.08 231.5,-255.08 231.5,-255.08 231.5,-243.08 231.5,-243.08 231.5,-237.08 237.5,-231.08 243.5,-231.08 243.5,-231.08 305.5,-231.08 305.5,-231.08 311.5,-231.08 317.5,-237.08 317.5,-243.08 317.5,-243.08 317.5,-255.08 317.5,-255.08 317.5,-261.08 311.5,-267.08 305.5,-267.08"/>
<text text-anchor="middle" x="274.5" y="-245.38" font-family="Times,serif" font-size="14.00">my&#45;lb&#45;dev</text>
</g>
<!-- my&#45;lb&#45;proto.vm -->
<g id="node12" class="node">
<title>my&#45;lb&#45;proto.vm</title>
<path fill="none" stroke="black" d="M491,-244.08C491,-244.08 416,-244.08 416,-244.08 410,-244.08 404,-238.08 404,-232.08 404,-232.08 404,-220.08 404,-220.08 404,-214.08 410,-208.08 416,-208.08 416,-208.08 491,-208.08 491,-208.08 497,-208.08 503,-214.08 503,-220.08 503,-220.08 503,-232.08 503,-232.08 503,-238.08 497,-244.08 491,-244.08"/>
<text text-anchor="middle" x="453.5" y="-222.38" font-family="Times,serif" font-size="14.00">my&#45;lb&#45;proto</text>
</g>
<!-- my&#45;lb&#45;dev.vm&#45;&gt;my&#45;lb&#45;proto.vm -->
<g id="edge10" class="edge">
<title>my&#45;lb&#45;dev.vm&#45;&gt;my&#45;lb&#45;proto.vm</title>
<path fill="none" stroke="black" d="M317.9,-243.57C340.64,-240.62 369.01,-236.93 393.84,-233.7"/>
<polygon fill="black" stroke="black" points="394.41,-237.16 403.88,-232.4 393.51,-230.22 394.41,-237.16"/>
</g>
<!-- my&#45;lb&#45;prod.vm -->
<g id="node11" class="node">
<title>my&#45;lb&#45;prod.vm</title>
<path fill="none" stroke="black" d="M126.5,-232.08C126.5,-232.08 56.5,-232.08 56.5,-232.08 50.5,-232.08 44.5,-226.08 44.5,-220.08 44.5,-220.08 44.5,-208.08 44.5,-208.08 44.5,-202.08 50.5,-196.08 56.5,-196.08 56.5,-196.08 126.5,-196.08 126.5,-196.08 132.5,-196.08 138.5,-202.08 138.5,-208.08 138.5,-208.08 138.5,-220.08 138.5,-220.08 138.5,-226.08 132.5,-232.08 126.5,-232.08"/>
<text text-anchor="middle" x="91.5" y="-210.38" font-family="Times,serif" font-size="14.00">my&#45;lb&#45;prod</text>
</g>
<!-- my&#45;lb&#45;prod.vm&#45;&gt;my&#45;lb&#45;dev.vm -->
<!-- my&#45;lb&#45;prod.vm&#45;&gt;my&#45;lb&#45;proto.vm -->
<g id="edge11" class="edge">
<title>my&#45;lb&#45;prod.vm&#45;&gt;my&#45;lb&#45;proto.vm</title>
<path fill="none" stroke="black" d="M138.82,-214.24C191.1,-214.59 278.7,-215.69 354,-219.08 366.84,-219.66 380.6,-220.5 393.65,-221.4"/>
<polygon fill="black" stroke="black" points="393.71,-224.91 403.93,-222.13 394.2,-217.93 393.71,-224.91"/>
</g>
<!-- my&#45;lb&#45;proto.vm&#45;&gt;my&#45;client&#45;proto.vm -->
<g id="edge12" class="edge">
<title>my&#45;lb&#45;proto.vm&#45;&gt;my&#45;client&#45;proto.vm</title>
<path fill="none" stroke="black" d="M503.04,-226.08C518.66,-226.08 536.32,-226.08 553.26,-226.08"/>
<polygon fill="black" stroke="black" points="553.69,-229.58 563.69,-226.08 553.69,-222.58 553.69,-229.58"/>
</g>
<!-- my&#45;mongo&#45;dev.vm -->
<g id="node13" class="node">
<title>my&#45;mongo&#45;dev.vm</title>
<path fill="none" stroke="black" d="M323,-451.08C323,-451.08 226,-451.08 226,-451.08 220,-451.08 214,-445.08 214,-439.08 214,-439.08 214,-427.08 214,-427.08 214,-421.08 220,-415.08 226,-415.08 226,-415.08 323,-415.08 323,-415.08 329,-415.08 335,-421.08 335,-427.08 335,-427.08 335,-439.08 335,-439.08 335,-445.08 329,-451.08 323,-451.08"/>
<text text-anchor="middle" x="274.5" y="-429.38" font-family="Times,serif" font-size="14.00">my&#45;mongo&#45;dev</text>
</g>
<!-- my&#45;mongo&#45;proto.vm -->
<g id="node15" class="node">
<title>my&#45;mongo&#45;proto.vm</title>
<path fill="none" stroke="black" d="M508.5,-412.08C508.5,-412.08 398.5,-412.08 398.5,-412.08 392.5,-412.08 386.5,-406.08 386.5,-400.08 386.5,-400.08 386.5,-388.08 386.5,-388.08 386.5,-382.08 392.5,-376.08 398.5,-376.08 398.5,-376.08 508.5,-376.08 508.5,-376.08 514.5,-376.08 520.5,-382.08 520.5,-388.08 520.5,-388.08 520.5,-400.08 520.5,-400.08 520.5,-406.08 514.5,-412.08 508.5,-412.08"/>
<text text-anchor="middle" x="453.5" y="-390.38" font-family="Times,serif" font-size="14.00">my&#45;mongo&#45;proto</text>
</g>
<!-- my&#45;mongo&#45;dev.vm&#45;&gt;my&#45;mongo&#45;proto.vm -->
<g id="edge13" class="edge">
<title>my&#45;mongo&#45;dev.vm&#45;&gt;my&#45;mongo&#45;proto.vm</title>
<path fill="none" stroke="black" d="M335.42,-419.88C348.58,-416.98 362.68,-413.87 376.37,-410.86"/>
<polygon fill="black" stroke="black" points="377.24,-414.25 386.25,-408.68 375.73,-407.41 377.24,-414.25"/>
</g>
<!-- my&#45;mongo&#45;prod.vm -->
<g id="node14" class="node">
<title>my&#45;mongo&#45;prod.vm</title>
<path fill="none" stroke="black" d="M143.5,-421.08C143.5,-421.08 39.5,-421.08 39.5,-421.08 33.5,-421.08 27.5,-415.08 27.5,-409.08 27.5,-409.08 27.5,-397.08 27.5,-397.08 27.5,-391.08 33.5,-385.08 39.5,-385.08 39.5,-385.08 143.5,-385.08 143.5,-385.08 149.5,-385.08 155.5,-391.08 155.5,-397.08 155.5,-397.08 155.5,-409.08 155.5,-409.08 155.5,-415.08 149.5,-421.08 143.5,-421.08"/>
<text text-anchor="middle" x="91.5" y="-399.38" font-family="Times,serif" font-size="14.00">my&#45;mongo&#45;prod</text>
</g>
<!-- my&#45;mongo&#45;prod.vm&#45;&gt;my&#45;mongo&#45;dev.vm -->
<!-- my&#45;mongo&#45;prod.vm&#45;&gt;my&#45;mongo&#45;proto.vm -->
<g id="edge14" class="edge">
<title>my&#45;mongo&#45;prod.vm&#45;&gt;my&#45;mongo&#45;proto.vm</title>
<path fill="none" stroke="black" d="M155.62,-401.5C217.06,-399.97 310.52,-397.63 376.12,-395.99"/>
<polygon fill="black" stroke="black" points="376.49,-399.48 386.4,-395.73 376.32,-392.48 376.49,-399.48"/>
</g>
<!-- my&#45;mongo&#45;proto.vm&#45;&gt;my&#45;server&#45;proto.vm -->
<g id="edge15" class="edge">
<title>my&#45;mongo&#45;proto.vm&#45;&gt;my&#45;server&#45;proto.vm</title>
<path fill="none" stroke="black" d="M520.61,-382.48C530.55,-380.74 540.86,-378.93 550.96,-377.16"/>
<polygon fill="black" stroke="black" points="551.72,-380.58 560.97,-375.4 550.51,-373.68 551.72,-380.58"/>
</g>
<!-- my&#45;server&#45;proto.vm&#45;&gt;ubuntu&#45;server&#45;20&#45;04&#45;5.vm -->
<g id="edge16" class="edge">
<title>my&#45;server&#45;proto.vm&#45;&gt;ubuntu&#45;server&#45;20&#45;04&#45;5.vm</title>
<path fill="none" stroke="black" d="M661.89,-345.92C692.81,-329.6 738.38,-305.54 771.76,-287.91"/>
<polygon fill="black" stroke="black" points="773.62,-290.89 780.83,-283.12 770.35,-284.7 773.62,-290.89"/>
</g>
<!-- my&#45;sql&#45;dev.vm -->
<g id="node17" class="node">
<title>my&#45;sql&#45;dev.vm</title>
<path fill="none" stroke="black" d="M309.5,-359.08C309.5,-359.08 239.5,-359.08 239.5,-359.08 233.5,-359.08 227.5,-353.08 227.5,-347.08 227.5,-347.08 227.5,-335.08 227.5,-335.08 227.5,-329.08 233.5,-323.08 239.5,-323.08 239.5,-323.08 309.5,-323.08 309.5,-323.08 315.5,-323.08 321.5,-329.08 321.5,-335.08 321.5,-335.08 321.5,-347.08 321.5,-347.08 321.5,-353.08 315.5,-359.08 309.5,-359.08"/>
<text text-anchor="middle" x="274.5" y="-337.38" font-family="Times,serif" font-size="14.00">my&#45;sql&#45;dev</text>
</g>
<!-- my&#45;sql&#45;proto.vm -->
<g id="node19" class="node">
<title>my&#45;sql&#45;proto.vm</title>
<path fill="none" stroke="black" d="M495,-352.08C495,-352.08 412,-352.08 412,-352.08 406,-352.08 400,-346.08 400,-340.08 400,-340.08 400,-328.08 400,-328.08 400,-322.08 406,-316.08 412,-316.08 412,-316.08 495,-316.08 495,-316.08 501,-316.08 507,-322.08 507,-328.08 507,-328.08 507,-340.08 507,-340.08 507,-346.08 501,-352.08 495,-352.08"/>
<text text-anchor="middle" x="453.5" y="-330.38" font-family="Times,serif" font-size="14.00">my&#45;sql&#45;proto</text>
</g>
<!-- my&#45;sql&#45;dev.vm&#45;&gt;my&#45;sql&#45;proto.vm -->
<g id="edge17" class="edge">
<title>my&#45;sql&#45;dev.vm&#45;&gt;my&#45;sql&#45;proto.vm</title>
<path fill="none" stroke="black" d="M321.54,-339.26C342.33,-338.44 367.21,-337.45 389.67,-336.57"/>
<polygon fill="black" stroke="black" points="389.95,-340.06 399.8,-336.17 389.67,-333.06 389.95,-340.06"/>
</g>
<!-- my&#45;sql&#45;prod.vm -->
<g id="node18" class="node">
<title>my&#45;sql&#45;prod.vm</title>
<path fill="none" stroke="black" d="M130,-329.08C130,-329.08 53,-329.08 53,-329.08 47,-329.08 41,-323.08 41,-317.08 41,-317.08 41,-305.08 41,-305.08 41,-299.08 47,-293.08 53,-293.08 53,-293.08 130,-293.08 130,-293.08 136,-293.08 142,-299.08 142,-305.08 142,-305.08 142,-317.08 142,-317.08 142,-323.08 136,-329.08 130,-329.08"/>
<text text-anchor="middle" x="91.5" y="-307.38" font-family="Times,serif" font-size="14.00">my&#45;sql&#45;prod</text>
</g>
<!-- my&#45;sql&#45;prod.vm&#45;&gt;my&#45;sql&#45;dev.vm -->
<!-- my&#45;sql&#45;prod.vm&#45;&gt;my&#45;sql&#45;proto.vm -->
<g id="edge18" class="edge">
<title>my&#45;sql&#45;prod.vm&#45;&gt;my&#45;sql&#45;proto.vm</title>
<path fill="none" stroke="black" d="M142.34,-307.7C195.1,-304.91 280.71,-302.64 354,-311.08 365.79,-312.44 378.22,-314.68 390.13,-317.25"/>
<polygon fill="black" stroke="black" points="389.46,-320.69 399.98,-319.47 391,-313.86 389.46,-320.69"/>
</g>
<!-- my&#45;sql&#45;proto.vm&#45;&gt;my&#45;server&#45;proto.vm -->
<g id="edge19" class="edge">
<title>my&#45;sql&#45;proto.vm&#45;&gt;my&#45;server&#45;proto.vm</title>
<path fill="none" stroke="black" d="M507.2,-343.33C520.99,-345.75 536.13,-348.4 550.83,-350.98"/>
<polygon fill="black" stroke="black" points="550.47,-354.47 560.92,-352.75 551.68,-347.58 550.47,-354.47"/>
</g>
</g>
</svg>
